…
``` r
b <- filter(flights,dest %in% c("IAH","HOU"))
count(b)
```

    ## # A tibble: 1 x 1
    ##       n
    ##   <int>
    ## 1  9313

``` r
b
```

    ## # A tibble: 9,313 x 19
    ##     year month   day dep_time sched_dep_time dep_delay arr_time sched_arr_time
    ##    <int> <int> <int>    <int>          <int>     <dbl>    <int>          <int>
    ##  1  2013     1     1      517            515         2      830            819
    ##  2  2013     1     1      533            529         4      850            830
    ##  3  2013     1     1      623            627        -4      933            932
    ##  4  2013     1     1      728            732        -4     1041           1038
    ##  5  2013     1     1      739            739         0     1104           1038
    ##  6  2013     1     1      908            908         0     1228           1219
    ##  7  2013     1     1     1028           1026         2     1350           1339
    ##  8  2013     1     1     1044           1045        -1     1352           1351
    ##  9  2013     1     1     1114            900       134     1447           1222
    ## 10  2013     1     1     1205           1200         5     1503           1505
    ## # ... with 9,303 more rows, and 11 more variables: arr_delay <dbl>,
    ## #   carrier <chr>, flight <int>, tailnum <chr>, origin <chr>, dest <chr>,
    ## #   air_time <dbl>, distance <dbl>, hour <dbl>, minute <dbl>, time_hour <dttm>
…
``` r
c <- filter(flights,carrier %in% c("UA", "AA", "DL"))
count(c)
```

    ## # A tibble: 1 x 1
    ##        n
    ##    <int>
    ## 1 139504

``` r
c
```

    ## # A tibble: 139,504 x 19
    ##     year month   day dep_time sched_dep_time dep_delay arr_time sched_arr_time
    ##    <int> <int> <int>    <int>          <int>     <dbl>    <int>          <int>
    ##  1  2013     1     1      517            515         2      830            819
    ##  2  2013     1     1      533            529         4      850            830
    ##  3  2013     1     1      542            540         2      923            850
    ##  4  2013     1     1      554            600        -6      812            837
    ##  5  2013     1     1      554            558        -4      740            728
    ##  6  2013     1     1      558            600        -2      753            745
    ##  7  2013     1     1      558            600        -2      924            917
    ##  8  2013     1     1      558            600        -2      923            937
    ##  9  2013     1     1      559            600        -1      941            910
    ## 10  2013     1     1      559            600        -1      854            902
    ## # ... with 139,494 more rows, and 11 more variables: arr_delay <dbl>,
    ## #   carrier <chr>, flight <int>, tailnum <chr>, origin <chr>, dest <chr>,
    ## #   air_time <dbl>, distance <dbl>, hour <dbl>, minute <dbl>, time_hour <dttm>
…
``` r
d <- filter(flights,month %in% c(7, 8, 9))
count(d)
```

    ## # A tibble: 1 x 1
    ##       n
    ##   <int>
    ## 1 86326

``` r
d
```

    ## # A tibble: 86,326 x 19
    ##     year month   day dep_time sched_dep_time dep_delay arr_time sched_arr_time
    ##    <int> <int> <int>    <int>          <int>     <dbl>    <int>          <int>
    ##  1  2013     7     1        1           2029       212      236           2359
    ##  2  2013     7     1        2           2359         3      344            344
    ##  3  2013     7     1       29           2245       104      151              1
    ##  4  2013     7     1       43           2130       193      322             14
    ##  5  2013     7     1       44           2150       174      300            100
    ##  6  2013     7     1       46           2051       235      304           2358
    ##  7  2013     7     1       48           2001       287      308           2305
    ##  8  2013     7     1       58           2155       183      335             43
    ##  9  2013     7     1      100           2146       194      327             30
    ## 10  2013     7     1      100           2245       135      337            135
    ## # ... with 86,316 more rows, and 11 more variables: arr_delay <dbl>,
    ## #   carrier <chr>, flight <int>, tailnum <chr>, origin <chr>, dest <chr>,
    ## #   air_time <dbl>, distance <dbl>, hour <dbl>, minute <dbl>, time_hour <dttm>
…
``` r
e <- filter(flights, dep_delay <= 0 & arr_delay > 120)
count(e)
```

    ## # A tibble: 1 x 1
    ##       n
    ##   <int>
    ## 1    29

``` r
e
```

    ## # A tibble: 29 x 19
    ##     year month   day dep_time sched_dep_time dep_delay arr_time sched_arr_time
    ##    <int> <int> <int>    <int>          <int>     <dbl>    <int>          <int>
    ##  1  2013     1    27     1419           1420        -1     1754           1550
    ##  2  2013    10     7     1350           1350         0     1736           1526
    ##  3  2013    10     7     1357           1359        -2     1858           1654
    ##  4  2013    10    16      657            700        -3     1258           1056
    ##  5  2013    11     1      658            700        -2     1329           1015
    ##  6  2013     3    18     1844           1847        -3       39           2219
    ##  7  2013     4    17     1635           1640        -5     2049           1845
    ##  8  2013     4    18      558            600        -2     1149            850
    ##  9  2013     4    18      655            700        -5     1213            950
    ## 10  2013     5    22     1827           1830        -3     2217           2010
    ## # ... with 19 more rows, and 11 more variables: arr_delay <dbl>, carrier <chr>,
    ## #   flight <int>, tailnum <chr>, origin <chr>, dest <chr>, air_time <dbl>,
    ## #   distance <dbl>, hour <dbl>, minute <dbl>, time_hour <dttm>
…
``` r
f <- filter(flights, dep_time >= 60 & dep_delay - arr_delay > 30)
count(f)
```

    ## # A tibble: 1 x 1
    ##       n
    ##   <int>
    ## 1 17877

``` r
f
```

    ## # A tibble: 17,877 x 19
    ##     year month   day dep_time sched_dep_time dep_delay arr_time sched_arr_time
    ##    <int> <int> <int>    <int>          <int>     <dbl>    <int>          <int>
    ##  1  2013     1     1      701            700         1     1123           1154
    ##  2  2013     1     1      820            820         0     1249           1329
    ##  3  2013     1     1      840            845        -5     1311           1350
    ##  4  2013     1     1      857            851         6     1157           1222
    ##  5  2013     1     1      909            810        59     1331           1315
    ##  6  2013     1     1     1025            951        34     1258           1302
    ##  7  2013     1     1     1153           1200        -7     1450           1529
    ##  8  2013     1     1     1245           1249        -4     1722           1800
    ##  9  2013     1     1     1625           1550        35     2054           2050
    ## 10  2013     1     1     1627           1630        -3     1940           2020
    ## # ... with 17,867 more rows, and 11 more variables: arr_delay <dbl>,
    ## #   carrier <chr>, flight <int>, tailnum <chr>, origin <chr>, dest <chr>,
    ## #   air_time <dbl>, distance <dbl>, hour <dbl>, minute <dbl>, time_hour <dttm>
…
``` r
g <- filter(flights,sched_dep_time %in% c(1:600) | sched_dep_time == 2400 )
count(g)
```

    ## # A tibble: 1 x 1
    ##       n
    ##   <int>
    ## 1  8970

``` r
g
```

    ## # A tibble: 8,970 x 19
    ##     year month   day dep_time sched_dep_time dep_delay arr_time sched_arr_time
    ##    <int> <int> <int>    <int>          <int>     <dbl>    <int>          <int>
    ##  1  2013     1     1      517            515         2      830            819
    ##  2  2013     1     1      533            529         4      850            830
    ##  3  2013     1     1      542            540         2      923            850
    ##  4  2013     1     1      544            545        -1     1004           1022
    ##  5  2013     1     1      554            600        -6      812            837
    ##  6  2013     1     1      554            558        -4      740            728
    ##  7  2013     1     1      555            600        -5      913            854
    ##  8  2013     1     1      557            600        -3      709            723
    ##  9  2013     1     1      557            600        -3      838            846
    ## 10  2013     1     1      558            600        -2      753            745
    ## # ... with 8,960 more rows, and 11 more variables: arr_delay <dbl>,
    ## #   carrier <chr>, flight <int>, tailnum <chr>, origin <chr>, dest <chr>,
    ## #   air_time <dbl>, distance <dbl>, hour <dbl>, minute <dbl>, time_hour <dttm>
…
2.  Otra función de dplyr que es útil para usar filtros es between().
    ¿Qué hace? ¿Puedes usarla para simplificar el código necesario para
    responder a los desafíos anteriores? Esta funcion del paquete
    **dplyr** permite abreviar la escritura de codigo que tiene esta
    estructura `x >= derecha & x <= izquierda` por
    `between(x, derecha, izquierda)` Podemos asi reescribir el codigo
    para encontrar los vuelos que partieron en el invierno del
    hemisferio sur en los meses 07 y 09

``` r
filter(flights, between(month, 7, 9))
```

    ## # A tibble: 86,326 x 19
    ##     year month   day dep_time sched_dep_time dep_delay arr_time sched_arr_time
    ##    <int> <int> <int>    <int>          <int>     <dbl>    <int>          <int>
    ##  1  2013     7     1        1           2029       212      236           2359
    ##  2  2013     7     1        2           2359         3      344            344
    ##  3  2013     7     1       29           2245       104      151              1
    ##  4  2013     7     1       43           2130       193      322             14
    ##  5  2013     7     1       44           2150       174      300            100
    ##  6  2013     7     1       46           2051       235      304           2358
    ##  7  2013     7     1       48           2001       287      308           2305
    ##  8  2013     7     1       58           2155       183      335             43
    ##  9  2013     7     1      100           2146       194      327             30
    ## 10  2013     7     1      100           2245       135      337            135
    ## # ... with 86,316 more rows, and 11 more variables: arr_delay <dbl>,
    ## #   carrier <chr>, flight <int>, tailnum <chr>, origin <chr>, dest <chr>,
    ## #   air_time <dbl>, distance <dbl>, hour <dbl>, minute <dbl>, time_hour <dttm>
…
Parte 2: Dplyr - arrange

1.  ¿Cómo podrías usar arrange() para ordenar todos los valores
    faltantes al comienzo? (Sugerencia: usa is.na()).

``` r
arrange(flights,desc(is.na(air_time)))
```

    ## # A tibble: 336,776 x 19
    ##     year month   day dep_time sched_dep_time dep_delay arr_time sched_arr_time
    ##    <int> <int> <int>    <int>          <int>     <dbl>    <int>          <int>
    ##  1  2013     1     1     1525           1530        -5     1934           1805
    ##  2  2013     1     1     1528           1459        29     2002           1647
    ##  3  2013     1     1     1740           1745        -5     2158           2020
    ##  4  2013     1     1     1807           1738        29     2251           2103
    ##  5  2013     1     1     1939           1840        59       29           2151
    ##  6  2013     1     1     1952           1930        22     2358           2207
    ##  7  2013     1     1     2016           1930        46       NA           2220
    ##  8  2013     1     1       NA           1630        NA       NA           1815
    ##  9  2013     1     1       NA           1935        NA       NA           2240
    ## 10  2013     1     1       NA           1500        NA       NA           1825
    ## # ... with 336,766 more rows, and 11 more variables: arr_delay <dbl>,
    ## #   carrier <chr>, flight <int>, tailnum <chr>, origin <chr>, dest <chr>,
    ## #   air_time <dbl>, distance <dbl>, hour <dbl>, minute <dbl>, time_hour <dttm>

Se usa la variable air_time porque es la que contiene mayor numero de NA

2.  Ordena vuelos para encontrar los vuelos más retrasados. Encuentra
    los vuelos que salieron más temprano.

``` r
arrange(flights,desc(dep_delay))
```

    ## # A tibble: 336,776 x 19
    ##     year month   day dep_time sched_dep_time dep_delay arr_time sched_arr_time
    ##    <int> <int> <int>    <int>          <int>     <dbl>    <int>          <int>
    ##  1  2013     1     9      641            900      1301     1242           1530
    ##  2  2013     6    15     1432           1935      1137     1607           2120
    ##  3  2013     1    10     1121           1635      1126     1239           1810
    ##  4  2013     9    20     1139           1845      1014     1457           2210
    ##  5  2013     7    22      845           1600      1005     1044           1815
    ##  6  2013     4    10     1100           1900       960     1342           2211
    ##  7  2013     3    17     2321            810       911      135           1020
    ##  8  2013     6    27      959           1900       899     1236           2226
    ##  9  2013     7    22     2257            759       898      121           1026
    ## 10  2013    12     5      756           1700       896     1058           2020
    ## # ... with 336,766 more rows, and 11 more variables: arr_delay <dbl>,
    ## #   carrier <chr>, flight <int>, tailnum <chr>, origin <chr>, dest <chr>,
    ## #   air_time <dbl>, distance <dbl>, hour <dbl>, minute <dbl>, time_hour <dttm>
…
4.  ¿Cuáles vuelos viajaron más lejos? ¿Cuál viajó más cerca?

Vuelos que viajaron mas lejos (considerando la distancia en millas entre
aeropuertos)

``` r
maslejos <- arrange(flights,desc(distance))
maslejos
```

    ## # A tibble: 336,776 x 19
    ##     year month   day dep_time sched_dep_time dep_delay arr_time sched_arr_time
    ##    <int> <int> <int>    <int>          <int>     <dbl>    <int>          <int>
    ##  1  2013     1     1      857            900        -3     1516           1530
    ##  2  2013     1     2      909            900         9     1525           1530
    ##  3  2013     1     3      914            900        14     1504           1530
    ##  4  2013     1     4      900            900         0     1516           1530
    ##  5  2013     1     5      858            900        -2     1519           1530
    ##  6  2013     1     6     1019            900        79     1558           1530
    ##  7  2013     1     7     1042            900       102     1620           1530
    ##  8  2013     1     8      901            900         1     1504           1530
    ##  9  2013     1     9      641            900      1301     1242           1530
    ## 10  2013     1    10      859            900        -1     1449           1530
    ## # ... with 336,766 more rows, and 11 more variables: arr_delay <dbl>,
    ## #   carrier <chr>, flight <int>, tailnum <chr>, origin <chr>, dest <chr>,
    ## #   air_time <dbl>, distance <dbl>, hour <dbl>, minute <dbl>, time_hour <dttm>

Vuelos que viajaron mas cerca (considerando la distancia en millas entre
aeropuertos)

``` r
mascerca <- arrange(flights,distance)
mascerca
```

    ## # A tibble: 336,776 x 19
    ##     year month   day dep_time sched_dep_time dep_delay arr_time sched_arr_time
    ##    <int> <int> <int>    <int>          <int>     <dbl>    <int>          <int>
    ##  1  2013     7    27       NA            106        NA       NA            245
    ##  2  2013     1     3     2127           2129        -2     2222           2224
    ##  3  2013     1     4     1240           1200        40     1333           1306
    ##  4  2013     1     4     1829           1615       134     1937           1721
    ##  5  2013     1     4     2128           2129        -1     2218           2224
    ##  6  2013     1     5     1155           1200        -5     1241           1306
    ##  7  2013     1     6     2125           2129        -4     2224           2224
    ##  8  2013     1     7     2124           2129        -5     2212           2224
    ##  9  2013     1     8     2127           2130        -3     2304           2225
    ## 10  2013     1     9     2126           2129        -3     2217           2224
    ## # ... with 336,766 more rows, and 11 more variables: arr_delay <dbl>,
    ## #   carrier <chr>, flight <int>, tailnum <chr>, origin <chr>, dest <chr>,
    ## #   air_time <dbl>, distance <dbl>, hour <dbl>, minute <dbl>, time_hour <dttm>

# Parte 3: Dplyr - select

1.Haz una lluvia de ideas sobre tantas maneras como sea posible para
seleccionar dep_time, dep_delay, arr_time, and arr_delay de flights.

Una primera opcion seria seleccionaras por su nombre:

``` r
select(flights,sched_dep_time,dep_delay,sched_arr_time,arr_delay)
```

    ## # A tibble: 336,776 x 4
    ##    sched_dep_time dep_delay sched_arr_time arr_delay
    ##             <int>     <dbl>          <int>     <dbl>
    ##  1            515         2            819        11
    ##  2            529         4            830        20
    ##  3            540         2            850        33
    ##  4            545        -1           1022       -18
    ##  5            600        -6            837       -25
    ##  6            558        -4            728        12
    ##  7            600        -5            854        19
    ##  8            600        -3            723       -14
    ##  9            600        -3            846        -8
    ## 10            600        -2            745         8
    ## # ... with 336,766 more rows

Otra forma es seleccionando las variables que empiezan con “sched” y
“delay” con la funcion “starts_with()” (“empieza con”) del paquete dplyr

``` r
select(flights, starts_with("sched"), starts_with("delay"))
```

    ## # A tibble: 336,776 x 2
    ##    sched_dep_time sched_arr_time
    ##             <int>          <int>
    ##  1            515            819
    ##  2            529            830
    ##  3            540            850
    ##  4            545           1022
    ##  5            600            837
    ##  6            558            728
    ##  7            600            854
    ##  8            600            723
    ##  9            600            846
    ## 10            600            745
    ## # ... with 336,766 more rows
Tambien es util en este caso utilizar la funcion “ends_with()”:

``` r
select(flights,ends_with("llegada"),ends_with("salida"))
```

    ## # A tibble: 336,776 x 0

Y una manera adicional es usando la funcion “contains()”:

``` r
select(flights,contains("sched"),contains("delay"))
```

    ## # A tibble: 336,776 x 4
    ##    sched_dep_time sched_arr_time dep_delay arr_delay
    ##             <int>          <int>     <dbl>     <dbl>
    ##  1            515            819         2        11
    ##  2            529            830         4        20
    ##  3            540            850         2        33
    ##  4            545           1022        -1       -18
    ##  5            600            837        -6       -25
    ##  6            558            728        -4        12
    ##  7            600            854        -5        19
    ##  8            600            723        -3       -14
    ##  9            600            846        -3        -8
    ## 10            600            745        -2         8
    ## # ... with 336,766 more rows
…
